﻿{
  "authors": [ "Mitchell Monahan" ],
  "title": "Simple Console Logger",
  "version": "1.0.2-*",

  "dependencies": {
    "NETStandard.Library": "1.6.0",
    "Microsoft.Extensions.Logging.Abstractions": "1.0.0"
  },

  "frameworks": {
    "netstandard1.6": {
      "imports": "dnxcore50"
    }
  }
}
